^F:\PROJECT\C++\DATASTRUCT\DATASTRUCT\DATASTRUCT\SINGLELINKEDLIST.CPP
D:\INSTALL\VS2010\VC\INCLUDE\IOSTREAM
D:\INSTALL\VS2010\VC\INCLUDE\ISTREAM
D:\INSTALL\VS2010\VC\INCLUDE\OSTREAM
D:\INSTALL\VS2010\VC\INCLUDE\IOS
D:\INSTALL\VS2010\VC\INCLUDE\XLOCNUM
D:\INSTALL\VS2010\VC\INCLUDE\CLIMITS
D:\INSTALL\VS2010\VC\INCLUDE\YVALS.H
D:\INSTALL\VS2010\VC\INCLUDE\CRTDEFS.H
D:\INSTALL\VS2010\VC\INCLUDE\SAL.H
D:\INSTALL\VS2010\VC\INCLUDE\CODEANALYSIS\SOURCEANNOTATIONS.H
D:\INSTALL\VS2010\VC\INCLUDE\VADEFS.H
D:\INSTALL\VS2010\VC\INCLUDE\USE_ANSI.H
D:\INSTALL\VS2010\VC\INCLUDE\LIMITS.H
D:\INSTALL\VS2010\VC\INCLUDE\CMATH
D:\INSTALL\VS2010\VC\INCLUDE\MATH.H
D:\INSTALL\VS2010\VC\INCLUDE\CSTDIO
D:\INSTALL\VS2010\VC\INCLUDE\STDIO.H
D:\INSTALL\VS2010\VC\INCLUDE\SWPRINTF.INL
D:\INSTALL\VS2010\VC\INCLUDE\CSTDLIB
D:\INSTALL\VS2010\VC\INCLUDE\STDLIB.H
D:\INSTALL\VS2010\VC\INCLUDE\STREAMBUF
D:\INSTALL\VS2010\VC\INCLUDE\XIOSBASE
D:\INSTALL\VS2010\VC\INCLUDE\XLOCALE
D:\INSTALL\VS2010\VC\INCLUDE\CSTRING
D:\INSTALL\VS2010\VC\INCLUDE\STRING.H
D:\INSTALL\VS2010\VC\INCLUDE\STDEXCEPT
D:\INSTALL\VS2010\VC\INCLUDE\EXCEPTION
D:\INSTALL\VS2010\VC\INCLUDE\XSTDDEF
D:\INSTALL\VS2010\VC\INCLUDE\CSTDDEF
D:\INSTALL\VS2010\VC\INCLUDE\STDDEF.H
D:\INSTALL\VS2010\VC\INCLUDE\EH.H
D:\INSTALL\VS2010\VC\INCLUDE\MALLOC.H
D:\INSTALL\VS2010\VC\INCLUDE\XSTRING
D:\INSTALL\VS2010\VC\INCLUDE\XMEMORY
D:\INSTALL\VS2010\VC\INCLUDE\NEW
D:\INSTALL\VS2010\VC\INCLUDE\XUTILITY
D:\INSTALL\VS2010\VC\INCLUDE\UTILITY
D:\INSTALL\VS2010\VC\INCLUDE\IOSFWD
D:\INSTALL\VS2010\VC\INCLUDE\CWCHAR
D:\INSTALL\VS2010\VC\INCLUDE\WCHAR.H
D:\INSTALL\VS2010\VC\INCLUDE\WTIME.INL
D:\INSTALL\VS2010\VC\INCLUDE\CRTDBG.H
D:\INSTALL\VS2010\VC\INCLUDE\TYPE_TRAITS
D:\INSTALL\VS2010\VC\INCLUDE\LIMITS
D:\INSTALL\VS2010\VC\INCLUDE\YMATH.H
D:\INSTALL\VS2010\VC\INCLUDE\CFLOAT
D:\INSTALL\VS2010\VC\INCLUDE\FLOAT.H
D:\INSTALL\VS2010\VC\INCLUDE\CRTWRN.H
D:\INSTALL\VS2010\VC\INCLUDE\XTR1COMMON
D:\INSTALL\VS2010\VC\INCLUDE\XFWRAP
D:\INSTALL\VS2010\VC\INCLUDE\XFWRAP1
D:\INSTALL\VS2010\VC\INCLUDE\XXTYPE_TRAITS
D:\INSTALL\VS2010\VC\INCLUDE\TYPEINFO
D:\INSTALL\VS2010\VC\INCLUDE\XLOCINFO
D:\INSTALL\VS2010\VC\INCLUDE\XLOCINFO.H
D:\INSTALL\VS2010\VC\INCLUDE\CTYPE.H
D:\INSTALL\VS2010\VC\INCLUDE\LOCALE.H
D:\INSTALL\VS2010\VC\INCLUDE\XDEBUG
D:\INSTALL\VS2010\VC\INCLUDE\SYSTEM_ERROR
D:\INSTALL\VS2010\VC\INCLUDE\CERRNO
D:\INSTALL\VS2010\VC\INCLUDE\ERRNO.H
D:\INSTALL\VS2010\VC\INCLUDE\SHARE.H
F:\PROJECT\C++\DATASTRUCT\DATASTRUCT\DATASTRUCT\SINGLELINKEDLIST.H
D:\INSTALL\VS2010\VC\BIN\1033\CLUI.DLL
C:\WINDOWS\GLOBALIZATION\SORTING\SORTDEFAULT.NLS
C:\WINDOWS\SYSTEM32\TZRES.DLL
^F:\PROJECT\C++\DATASTRUCT\DATASTRUCT\DATASTRUCT\MAIN.CPP
D:\INSTALL\VS2010\VC\INCLUDE\IOSTREAM
D:\INSTALL\VS2010\VC\INCLUDE\ISTREAM
D:\INSTALL\VS2010\VC\INCLUDE\OSTREAM
D:\INSTALL\VS2010\VC\INCLUDE\IOS
D:\INSTALL\VS2010\VC\INCLUDE\XLOCNUM
D:\INSTALL\VS2010\VC\INCLUDE\CLIMITS
D:\INSTALL\VS2010\VC\INCLUDE\YVALS.H
D:\INSTALL\VS2010\VC\INCLUDE\CRTDEFS.H
D:\INSTALL\VS2010\VC\INCLUDE\SAL.H
D:\INSTALL\VS2010\VC\INCLUDE\CODEANALYSIS\SOURCEANNOTATIONS.H
D:\INSTALL\VS2010\VC\INCLUDE\VADEFS.H
D:\INSTALL\VS2010\VC\INCLUDE\USE_ANSI.H
D:\INSTALL\VS2010\VC\INCLUDE\LIMITS.H
D:\INSTALL\VS2010\VC\INCLUDE\CMATH
D:\INSTALL\VS2010\VC\INCLUDE\MATH.H
D:\INSTALL\VS2010\VC\INCLUDE\CSTDIO
D:\INSTALL\VS2010\VC\INCLUDE\STDIO.H
D:\INSTALL\VS2010\VC\INCLUDE\SWPRINTF.INL
D:\INSTALL\VS2010\VC\INCLUDE\CSTDLIB
D:\INSTALL\VS2010\VC\INCLUDE\STDLIB.H
D:\INSTALL\VS2010\VC\INCLUDE\STREAMBUF
D:\INSTALL\VS2010\VC\INCLUDE\XIOSBASE
D:\INSTALL\VS2010\VC\INCLUDE\XLOCALE
D:\INSTALL\VS2010\VC\INCLUDE\CSTRING
D:\INSTALL\VS2010\VC\INCLUDE\STRING.H
D:\INSTALL\VS2010\VC\INCLUDE\STDEXCEPT
D:\INSTALL\VS2010\VC\INCLUDE\EXCEPTION
D:\INSTALL\VS2010\VC\INCLUDE\XSTDDEF
D:\INSTALL\VS2010\VC\INCLUDE\CSTDDEF
D:\INSTALL\VS2010\VC\INCLUDE\STDDEF.H
D:\INSTALL\VS2010\VC\INCLUDE\EH.H
D:\INSTALL\VS2010\VC\INCLUDE\MALLOC.H
D:\INSTALL\VS2010\VC\INCLUDE\XSTRING
D:\INSTALL\VS2010\VC\INCLUDE\XMEMORY
D:\INSTALL\VS2010\VC\INCLUDE\NEW
D:\INSTALL\VS2010\VC\INCLUDE\XUTILITY
D:\INSTALL\VS2010\VC\INCLUDE\UTILITY
D:\INSTALL\VS2010\VC\INCLUDE\IOSFWD
D:\INSTALL\VS2010\VC\INCLUDE\CWCHAR
D:\INSTALL\VS2010\VC\INCLUDE\WCHAR.H
D:\INSTALL\VS2010\VC\INCLUDE\WTIME.INL
D:\INSTALL\VS2010\VC\INCLUDE\CRTDBG.H
D:\INSTALL\VS2010\VC\INCLUDE\TYPE_TRAITS
D:\INSTALL\VS2010\VC\INCLUDE\LIMITS
D:\INSTALL\VS2010\VC\INCLUDE\YMATH.H
D:\INSTALL\VS2010\VC\INCLUDE\CFLOAT
D:\INSTALL\VS2010\VC\INCLUDE\FLOAT.H
D:\INSTALL\VS2010\VC\INCLUDE\CRTWRN.H
D:\INSTALL\VS2010\VC\INCLUDE\XTR1COMMON
D:\INSTALL\VS2010\VC\INCLUDE\XFWRAP
D:\INSTALL\VS2010\VC\INCLUDE\XFWRAP1
D:\INSTALL\VS2010\VC\INCLUDE\XXTYPE_TRAITS
D:\INSTALL\VS2010\VC\INCLUDE\TYPEINFO
D:\INSTALL\VS2010\VC\INCLUDE\XLOCINFO
D:\INSTALL\VS2010\VC\INCLUDE\XLOCINFO.H
D:\INSTALL\VS2010\VC\INCLUDE\CTYPE.H
D:\INSTALL\VS2010\VC\INCLUDE\LOCALE.H
D:\INSTALL\VS2010\VC\INCLUDE\XDEBUG
D:\INSTALL\VS2010\VC\INCLUDE\SYSTEM_ERROR
D:\INSTALL\VS2010\VC\INCLUDE\CERRNO
D:\INSTALL\VS2010\VC\INCLUDE\ERRNO.H
D:\INSTALL\VS2010\VC\INCLUDE\SHARE.H
F:\PROJECT\C++\DATASTRUCT\DATASTRUCT\DATASTRUCT\SINGLELINKEDLIST.H
D:\INSTALL\VS2010\VC\BIN\1033\CLUI.DLL
C:\WINDOWS\GLOBALIZATION\SORTING\SORTDEFAULT.NLS
C:\WINDOWS\SYSTEM32\TZRES.DLL
F:\PROJECT\C++\DATASTRUCT\DATASTRUCT\DATASTRUCT\SINGLELOOPLINKLIST.H
F:\PROJECT\C++\DATASTRUCT\DATASTRUCT\DATASTRUCT\DOUBLELINKEDLIST.H
F:\PROJECT\C++\DATASTRUCT\DATASTRUCT\DATASTRUCT\ARRSTACK.H
F:\PROJECT\C++\DATASTRUCT\DATASTRUCT\DATASTRUCT\LINKEDQUEUE.H
F:\PROJECT\C++\DATASTRUCT\DATASTRUCT\DATASTRUCT\BINARYTREE.H
^F:\PROJECT\C++\DATASTRUCT\DATASTRUCT\DATASTRUCT\SINGLELOOPLINKLIST.CPP
D:\INSTALL\VS2010\VC\INCLUDE\IOSTREAM
D:\INSTALL\VS2010\VC\INCLUDE\ISTREAM
D:\INSTALL\VS2010\VC\INCLUDE\OSTREAM
D:\INSTALL\VS2010\VC\INCLUDE\IOS
D:\INSTALL\VS2010\VC\INCLUDE\XLOCNUM
D:\INSTALL\VS2010\VC\INCLUDE\CLIMITS
D:\INSTALL\VS2010\VC\INCLUDE\YVALS.H
D:\INSTALL\VS2010\VC\INCLUDE\CRTDEFS.H
D:\INSTALL\VS2010\VC\INCLUDE\SAL.H
D:\INSTALL\VS2010\VC\INCLUDE\CODEANALYSIS\SOURCEANNOTATIONS.H
D:\INSTALL\VS2010\VC\INCLUDE\VADEFS.H
D:\INSTALL\VS2010\VC\INCLUDE\USE_ANSI.H
D:\INSTALL\VS2010\VC\INCLUDE\LIMITS.H
D:\INSTALL\VS2010\VC\INCLUDE\CMATH
D:\INSTALL\VS2010\VC\INCLUDE\MATH.H
D:\INSTALL\VS2010\VC\INCLUDE\CSTDIO
D:\INSTALL\VS2010\VC\INCLUDE\STDIO.H
D:\INSTALL\VS2010\VC\INCLUDE\SWPRINTF.INL
D:\INSTALL\VS2010\VC\INCLUDE\CSTDLIB
D:\INSTALL\VS2010\VC\INCLUDE\STDLIB.H
D:\INSTALL\VS2010\VC\INCLUDE\STREAMBUF
D:\INSTALL\VS2010\VC\INCLUDE\XIOSBASE
D:\INSTALL\VS2010\VC\INCLUDE\XLOCALE
D:\INSTALL\VS2010\VC\INCLUDE\CSTRING
D:\INSTALL\VS2010\VC\INCLUDE\STRING.H
D:\INSTALL\VS2010\VC\INCLUDE\STDEXCEPT
D:\INSTALL\VS2010\VC\INCLUDE\EXCEPTION
D:\INSTALL\VS2010\VC\INCLUDE\XSTDDEF
D:\INSTALL\VS2010\VC\INCLUDE\CSTDDEF
D:\INSTALL\VS2010\VC\INCLUDE\STDDEF.H
D:\INSTALL\VS2010\VC\INCLUDE\EH.H
D:\INSTALL\VS2010\VC\INCLUDE\MALLOC.H
D:\INSTALL\VS2010\VC\INCLUDE\XSTRING
D:\INSTALL\VS2010\VC\INCLUDE\XMEMORY
D:\INSTALL\VS2010\VC\INCLUDE\NEW
D:\INSTALL\VS2010\VC\INCLUDE\XUTILITY
D:\INSTALL\VS2010\VC\INCLUDE\UTILITY
D:\INSTALL\VS2010\VC\INCLUDE\IOSFWD
D:\INSTALL\VS2010\VC\INCLUDE\CWCHAR
D:\INSTALL\VS2010\VC\INCLUDE\WCHAR.H
D:\INSTALL\VS2010\VC\INCLUDE\WTIME.INL
D:\INSTALL\VS2010\VC\INCLUDE\CRTDBG.H
D:\INSTALL\VS2010\VC\INCLUDE\TYPE_TRAITS
D:\INSTALL\VS2010\VC\INCLUDE\LIMITS
D:\INSTALL\VS2010\VC\INCLUDE\YMATH.H
D:\INSTALL\VS2010\VC\INCLUDE\CFLOAT
D:\INSTALL\VS2010\VC\INCLUDE\FLOAT.H
D:\INSTALL\VS2010\VC\INCLUDE\CRTWRN.H
D:\INSTALL\VS2010\VC\INCLUDE\XTR1COMMON
D:\INSTALL\VS2010\VC\INCLUDE\XFWRAP
D:\INSTALL\VS2010\VC\INCLUDE\XFWRAP1
D:\INSTALL\VS2010\VC\INCLUDE\XXTYPE_TRAITS
D:\INSTALL\VS2010\VC\INCLUDE\TYPEINFO
D:\INSTALL\VS2010\VC\INCLUDE\XLOCINFO
D:\INSTALL\VS2010\VC\INCLUDE\XLOCINFO.H
D:\INSTALL\VS2010\VC\INCLUDE\CTYPE.H
D:\INSTALL\VS2010\VC\INCLUDE\LOCALE.H
D:\INSTALL\VS2010\VC\INCLUDE\XDEBUG
D:\INSTALL\VS2010\VC\INCLUDE\SYSTEM_ERROR
D:\INSTALL\VS2010\VC\INCLUDE\CERRNO
D:\INSTALL\VS2010\VC\INCLUDE\ERRNO.H
D:\INSTALL\VS2010\VC\INCLUDE\SHARE.H
F:\PROJECT\C++\DATASTRUCT\DATASTRUCT\DATASTRUCT\SINGLELOOPLINKLIST.H
F:\PROJECT\C++\DATASTRUCT\DATASTRUCT\DATASTRUCT\SINGLELINKEDLIST.H
D:\INSTALL\VS2010\VC\BIN\1033\CLUI.DLL
C:\WINDOWS\GLOBALIZATION\SORTING\SORTDEFAULT.NLS
C:\WINDOWS\SYSTEM32\TZRES.DLL
^F:\PROJECT\C++\DATASTRUCT\DATASTRUCT\DATASTRUCT\DOUBLELINKEDLIST.CPP
D:\INSTALL\VS2010\VC\INCLUDE\IOSTREAM
D:\INSTALL\VS2010\VC\INCLUDE\ISTREAM
D:\INSTALL\VS2010\VC\INCLUDE\OSTREAM
D:\INSTALL\VS2010\VC\INCLUDE\IOS
D:\INSTALL\VS2010\VC\INCLUDE\XLOCNUM
D:\INSTALL\VS2010\VC\INCLUDE\CLIMITS
D:\INSTALL\VS2010\VC\INCLUDE\YVALS.H
D:\INSTALL\VS2010\VC\INCLUDE\CRTDEFS.H
D:\INSTALL\VS2010\VC\INCLUDE\SAL.H
D:\INSTALL\VS2010\VC\INCLUDE\CODEANALYSIS\SOURCEANNOTATIONS.H
D:\INSTALL\VS2010\VC\INCLUDE\VADEFS.H
D:\INSTALL\VS2010\VC\INCLUDE\USE_ANSI.H
D:\INSTALL\VS2010\VC\INCLUDE\LIMITS.H
D:\INSTALL\VS2010\VC\INCLUDE\CMATH
D:\INSTALL\VS2010\VC\INCLUDE\MATH.H
D:\INSTALL\VS2010\VC\INCLUDE\CSTDIO
D:\INSTALL\VS2010\VC\INCLUDE\STDIO.H
D:\INSTALL\VS2010\VC\INCLUDE\SWPRINTF.INL
D:\INSTALL\VS2010\VC\INCLUDE\CSTDLIB
D:\INSTALL\VS2010\VC\INCLUDE\STDLIB.H
D:\INSTALL\VS2010\VC\INCLUDE\STREAMBUF
D:\INSTALL\VS2010\VC\INCLUDE\XIOSBASE
D:\INSTALL\VS2010\VC\INCLUDE\XLOCALE
D:\INSTALL\VS2010\VC\INCLUDE\CSTRING
D:\INSTALL\VS2010\VC\INCLUDE\STRING.H
D:\INSTALL\VS2010\VC\INCLUDE\STDEXCEPT
D:\INSTALL\VS2010\VC\INCLUDE\EXCEPTION
D:\INSTALL\VS2010\VC\INCLUDE\XSTDDEF
D:\INSTALL\VS2010\VC\INCLUDE\CSTDDEF
D:\INSTALL\VS2010\VC\INCLUDE\STDDEF.H
D:\INSTALL\VS2010\VC\INCLUDE\EH.H
D:\INSTALL\VS2010\VC\INCLUDE\MALLOC.H
D:\INSTALL\VS2010\VC\INCLUDE\XSTRING
D:\INSTALL\VS2010\VC\INCLUDE\XMEMORY
D:\INSTALL\VS2010\VC\INCLUDE\NEW
D:\INSTALL\VS2010\VC\INCLUDE\XUTILITY
D:\INSTALL\VS2010\VC\INCLUDE\UTILITY
D:\INSTALL\VS2010\VC\INCLUDE\IOSFWD
D:\INSTALL\VS2010\VC\INCLUDE\CWCHAR
D:\INSTALL\VS2010\VC\INCLUDE\WCHAR.H
D:\INSTALL\VS2010\VC\INCLUDE\WTIME.INL
D:\INSTALL\VS2010\VC\INCLUDE\CRTDBG.H
D:\INSTALL\VS2010\VC\INCLUDE\TYPE_TRAITS
D:\INSTALL\VS2010\VC\INCLUDE\LIMITS
D:\INSTALL\VS2010\VC\INCLUDE\YMATH.H
D:\INSTALL\VS2010\VC\INCLUDE\CFLOAT
D:\INSTALL\VS2010\VC\INCLUDE\FLOAT.H
D:\INSTALL\VS2010\VC\INCLUDE\CRTWRN.H
D:\INSTALL\VS2010\VC\INCLUDE\XTR1COMMON
D:\INSTALL\VS2010\VC\INCLUDE\XFWRAP
D:\INSTALL\VS2010\VC\INCLUDE\XFWRAP1
D:\INSTALL\VS2010\VC\INCLUDE\XXTYPE_TRAITS
D:\INSTALL\VS2010\VC\INCLUDE\TYPEINFO
D:\INSTALL\VS2010\VC\INCLUDE\XLOCINFO
D:\INSTALL\VS2010\VC\INCLUDE\XLOCINFO.H
D:\INSTALL\VS2010\VC\INCLUDE\CTYPE.H
D:\INSTALL\VS2010\VC\INCLUDE\LOCALE.H
D:\INSTALL\VS2010\VC\INCLUDE\XDEBUG
D:\INSTALL\VS2010\VC\INCLUDE\SYSTEM_ERROR
D:\INSTALL\VS2010\VC\INCLUDE\CERRNO
D:\INSTALL\VS2010\VC\INCLUDE\ERRNO.H
D:\INSTALL\VS2010\VC\INCLUDE\SHARE.H
F:\PROJECT\C++\DATASTRUCT\DATASTRUCT\DATASTRUCT\SINGLELINKEDLIST.H
D:\INSTALL\VS2010\VC\BIN\1033\CLUI.DLL
C:\WINDOWS\GLOBALIZATION\SORTING\SORTDEFAULT.NLS
C:\WINDOWS\SYSTEM32\TZRES.DLL
F:\PROJECT\C++\DATASTRUCT\DATASTRUCT\DATASTRUCT\DOUBLELINKEDLIST.H
^F:\PROJECT\C++\DATASTRUCT\DATASTRUCT\DATASTRUCT\ARRSTACK.CPP
D:\INSTALL\VS2010\VC\INCLUDE\IOSTREAM
D:\INSTALL\VS2010\VC\INCLUDE\ISTREAM
D:\INSTALL\VS2010\VC\INCLUDE\OSTREAM
D:\INSTALL\VS2010\VC\INCLUDE\IOS
D:\INSTALL\VS2010\VC\INCLUDE\XLOCNUM
D:\INSTALL\VS2010\VC\INCLUDE\CLIMITS
D:\INSTALL\VS2010\VC\INCLUDE\YVALS.H
D:\INSTALL\VS2010\VC\INCLUDE\CRTDEFS.H
D:\INSTALL\VS2010\VC\INCLUDE\SAL.H
D:\INSTALL\VS2010\VC\INCLUDE\CODEANALYSIS\SOURCEANNOTATIONS.H
D:\INSTALL\VS2010\VC\INCLUDE\VADEFS.H
D:\INSTALL\VS2010\VC\INCLUDE\USE_ANSI.H
D:\INSTALL\VS2010\VC\INCLUDE\LIMITS.H
D:\INSTALL\VS2010\VC\INCLUDE\CMATH
D:\INSTALL\VS2010\VC\INCLUDE\MATH.H
D:\INSTALL\VS2010\VC\INCLUDE\CSTDIO
D:\INSTALL\VS2010\VC\INCLUDE\STDIO.H
D:\INSTALL\VS2010\VC\INCLUDE\SWPRINTF.INL
D:\INSTALL\VS2010\VC\INCLUDE\CSTDLIB
D:\INSTALL\VS2010\VC\INCLUDE\STDLIB.H
D:\INSTALL\VS2010\VC\INCLUDE\STREAMBUF
D:\INSTALL\VS2010\VC\INCLUDE\XIOSBASE
D:\INSTALL\VS2010\VC\INCLUDE\XLOCALE
D:\INSTALL\VS2010\VC\INCLUDE\CSTRING
D:\INSTALL\VS2010\VC\INCLUDE\STRING.H
D:\INSTALL\VS2010\VC\INCLUDE\STDEXCEPT
D:\INSTALL\VS2010\VC\INCLUDE\EXCEPTION
D:\INSTALL\VS2010\VC\INCLUDE\XSTDDEF
D:\INSTALL\VS2010\VC\INCLUDE\CSTDDEF
D:\INSTALL\VS2010\VC\INCLUDE\STDDEF.H
D:\INSTALL\VS2010\VC\INCLUDE\EH.H
D:\INSTALL\VS2010\VC\INCLUDE\MALLOC.H
D:\INSTALL\VS2010\VC\INCLUDE\XSTRING
D:\INSTALL\VS2010\VC\INCLUDE\XMEMORY
D:\INSTALL\VS2010\VC\INCLUDE\NEW
D:\INSTALL\VS2010\VC\INCLUDE\XUTILITY
D:\INSTALL\VS2010\VC\INCLUDE\UTILITY
D:\INSTALL\VS2010\VC\INCLUDE\IOSFWD
D:\INSTALL\VS2010\VC\INCLUDE\CWCHAR
D:\INSTALL\VS2010\VC\INCLUDE\WCHAR.H
D:\INSTALL\VS2010\VC\INCLUDE\WTIME.INL
D:\INSTALL\VS2010\VC\INCLUDE\CRTDBG.H
D:\INSTALL\VS2010\VC\INCLUDE\TYPE_TRAITS
D:\INSTALL\VS2010\VC\INCLUDE\LIMITS
D:\INSTALL\VS2010\VC\INCLUDE\YMATH.H
D:\INSTALL\VS2010\VC\INCLUDE\CFLOAT
D:\INSTALL\VS2010\VC\INCLUDE\FLOAT.H
D:\INSTALL\VS2010\VC\INCLUDE\CRTWRN.H
D:\INSTALL\VS2010\VC\INCLUDE\XTR1COMMON
D:\INSTALL\VS2010\VC\INCLUDE\XFWRAP
D:\INSTALL\VS2010\VC\INCLUDE\XFWRAP1
D:\INSTALL\VS2010\VC\INCLUDE\XXTYPE_TRAITS
D:\INSTALL\VS2010\VC\INCLUDE\TYPEINFO
D:\INSTALL\VS2010\VC\INCLUDE\XLOCINFO
D:\INSTALL\VS2010\VC\INCLUDE\XLOCINFO.H
D:\INSTALL\VS2010\VC\INCLUDE\CTYPE.H
D:\INSTALL\VS2010\VC\INCLUDE\LOCALE.H
D:\INSTALL\VS2010\VC\INCLUDE\XDEBUG
D:\INSTALL\VS2010\VC\INCLUDE\SYSTEM_ERROR
D:\INSTALL\VS2010\VC\INCLUDE\CERRNO
D:\INSTALL\VS2010\VC\INCLUDE\ERRNO.H
D:\INSTALL\VS2010\VC\INCLUDE\SHARE.H
F:\PROJECT\C++\DATASTRUCT\DATASTRUCT\DATASTRUCT\ARRSTACK.H
^F:\PROJECT\C++\DATASTRUCT\DATASTRUCT\DATASTRUCT\LINKEDQUEUE.CPP
D:\INSTALL\VS2010\VC\INCLUDE\IOSTREAM
D:\INSTALL\VS2010\VC\INCLUDE\ISTREAM
D:\INSTALL\VS2010\VC\INCLUDE\OSTREAM
D:\INSTALL\VS2010\VC\INCLUDE\IOS
D:\INSTALL\VS2010\VC\INCLUDE\XLOCNUM
D:\INSTALL\VS2010\VC\INCLUDE\CLIMITS
D:\INSTALL\VS2010\VC\INCLUDE\YVALS.H
D:\INSTALL\VS2010\VC\INCLUDE\CRTDEFS.H
D:\INSTALL\VS2010\VC\INCLUDE\SAL.H
D:\INSTALL\VS2010\VC\INCLUDE\CODEANALYSIS\SOURCEANNOTATIONS.H
D:\INSTALL\VS2010\VC\INCLUDE\VADEFS.H
D:\INSTALL\VS2010\VC\INCLUDE\USE_ANSI.H
D:\INSTALL\VS2010\VC\INCLUDE\LIMITS.H
D:\INSTALL\VS2010\VC\INCLUDE\CMATH
D:\INSTALL\VS2010\VC\INCLUDE\MATH.H
D:\INSTALL\VS2010\VC\INCLUDE\CSTDIO
D:\INSTALL\VS2010\VC\INCLUDE\STDIO.H
D:\INSTALL\VS2010\VC\INCLUDE\SWPRINTF.INL
D:\INSTALL\VS2010\VC\INCLUDE\CSTDLIB
D:\INSTALL\VS2010\VC\INCLUDE\STDLIB.H
D:\INSTALL\VS2010\VC\INCLUDE\STREAMBUF
D:\INSTALL\VS2010\VC\INCLUDE\XIOSBASE
D:\INSTALL\VS2010\VC\INCLUDE\XLOCALE
D:\INSTALL\VS2010\VC\INCLUDE\CSTRING
D:\INSTALL\VS2010\VC\INCLUDE\STRING.H
D:\INSTALL\VS2010\VC\INCLUDE\STDEXCEPT
D:\INSTALL\VS2010\VC\INCLUDE\EXCEPTION
D:\INSTALL\VS2010\VC\INCLUDE\XSTDDEF
D:\INSTALL\VS2010\VC\INCLUDE\CSTDDEF
D:\INSTALL\VS2010\VC\INCLUDE\STDDEF.H
D:\INSTALL\VS2010\VC\INCLUDE\EH.H
D:\INSTALL\VS2010\VC\INCLUDE\MALLOC.H
D:\INSTALL\VS2010\VC\INCLUDE\XSTRING
D:\INSTALL\VS2010\VC\INCLUDE\XMEMORY
D:\INSTALL\VS2010\VC\INCLUDE\NEW
D:\INSTALL\VS2010\VC\INCLUDE\XUTILITY
D:\INSTALL\VS2010\VC\INCLUDE\UTILITY
D:\INSTALL\VS2010\VC\INCLUDE\IOSFWD
D:\INSTALL\VS2010\VC\INCLUDE\CWCHAR
D:\INSTALL\VS2010\VC\INCLUDE\WCHAR.H
D:\INSTALL\VS2010\VC\INCLUDE\WTIME.INL
D:\INSTALL\VS2010\VC\INCLUDE\CRTDBG.H
D:\INSTALL\VS2010\VC\INCLUDE\TYPE_TRAITS
D:\INSTALL\VS2010\VC\INCLUDE\LIMITS
D:\INSTALL\VS2010\VC\INCLUDE\YMATH.H
D:\INSTALL\VS2010\VC\INCLUDE\CFLOAT
D:\INSTALL\VS2010\VC\INCLUDE\FLOAT.H
D:\INSTALL\VS2010\VC\INCLUDE\CRTWRN.H
D:\INSTALL\VS2010\VC\INCLUDE\XTR1COMMON
D:\INSTALL\VS2010\VC\INCLUDE\XFWRAP
D:\INSTALL\VS2010\VC\INCLUDE\XFWRAP1
D:\INSTALL\VS2010\VC\INCLUDE\XXTYPE_TRAITS
D:\INSTALL\VS2010\VC\INCLUDE\TYPEINFO
D:\INSTALL\VS2010\VC\INCLUDE\XLOCINFO
D:\INSTALL\VS2010\VC\INCLUDE\XLOCINFO.H
D:\INSTALL\VS2010\VC\INCLUDE\CTYPE.H
D:\INSTALL\VS2010\VC\INCLUDE\LOCALE.H
D:\INSTALL\VS2010\VC\INCLUDE\XDEBUG
D:\INSTALL\VS2010\VC\INCLUDE\SYSTEM_ERROR
D:\INSTALL\VS2010\VC\INCLUDE\CERRNO
D:\INSTALL\VS2010\VC\INCLUDE\ERRNO.H
D:\INSTALL\VS2010\VC\INCLUDE\SHARE.H
F:\PROJECT\C++\DATASTRUCT\DATASTRUCT\DATASTRUCT\LINKEDQUEUE.H
D:\INSTALL\VS2010\VC\BIN\1033\CLUI.DLL
C:\WINDOWS\GLOBALIZATION\SORTING\SORTDEFAULT.NLS
C:\WINDOWS\SYSTEM32\TZRES.DLL
^F:\PROJECT\C++\DATASTRUCT\DATASTRUCT\DATASTRUCT\BINARYTREE.CPP
D:\INSTALL\VS2010\VC\INCLUDE\IOSTREAM
D:\INSTALL\VS2010\VC\INCLUDE\ISTREAM
D:\INSTALL\VS2010\VC\INCLUDE\OSTREAM
D:\INSTALL\VS2010\VC\INCLUDE\IOS
D:\INSTALL\VS2010\VC\INCLUDE\XLOCNUM
D:\INSTALL\VS2010\VC\INCLUDE\CLIMITS
D:\INSTALL\VS2010\VC\INCLUDE\YVALS.H
D:\INSTALL\VS2010\VC\INCLUDE\CRTDEFS.H
D:\INSTALL\VS2010\VC\INCLUDE\SAL.H
D:\INSTALL\VS2010\VC\INCLUDE\CODEANALYSIS\SOURCEANNOTATIONS.H
D:\INSTALL\VS2010\VC\INCLUDE\VADEFS.H
D:\INSTALL\VS2010\VC\INCLUDE\USE_ANSI.H
D:\INSTALL\VS2010\VC\INCLUDE\LIMITS.H
D:\INSTALL\VS2010\VC\INCLUDE\CMATH
D:\INSTALL\VS2010\VC\INCLUDE\MATH.H
D:\INSTALL\VS2010\VC\INCLUDE\CSTDIO
D:\INSTALL\VS2010\VC\INCLUDE\STDIO.H
D:\INSTALL\VS2010\VC\INCLUDE\SWPRINTF.INL
D:\INSTALL\VS2010\VC\INCLUDE\CSTDLIB
D:\INSTALL\VS2010\VC\INCLUDE\STDLIB.H
D:\INSTALL\VS2010\VC\INCLUDE\STREAMBUF
D:\INSTALL\VS2010\VC\INCLUDE\XIOSBASE
D:\INSTALL\VS2010\VC\INCLUDE\XLOCALE
D:\INSTALL\VS2010\VC\INCLUDE\CSTRING
D:\INSTALL\VS2010\VC\INCLUDE\STRING.H
D:\INSTALL\VS2010\VC\INCLUDE\STDEXCEPT
D:\INSTALL\VS2010\VC\INCLUDE\EXCEPTION
D:\INSTALL\VS2010\VC\INCLUDE\XSTDDEF
D:\INSTALL\VS2010\VC\INCLUDE\CSTDDEF
D:\INSTALL\VS2010\VC\INCLUDE\STDDEF.H
D:\INSTALL\VS2010\VC\INCLUDE\EH.H
D:\INSTALL\VS2010\VC\INCLUDE\MALLOC.H
D:\INSTALL\VS2010\VC\INCLUDE\XSTRING
D:\INSTALL\VS2010\VC\INCLUDE\XMEMORY
D:\INSTALL\VS2010\VC\INCLUDE\NEW
D:\INSTALL\VS2010\VC\INCLUDE\XUTILITY
D:\INSTALL\VS2010\VC\INCLUDE\UTILITY
D:\INSTALL\VS2010\VC\INCLUDE\IOSFWD
D:\INSTALL\VS2010\VC\INCLUDE\CWCHAR
D:\INSTALL\VS2010\VC\INCLUDE\WCHAR.H
D:\INSTALL\VS2010\VC\INCLUDE\WTIME.INL
D:\INSTALL\VS2010\VC\INCLUDE\CRTDBG.H
D:\INSTALL\VS2010\VC\INCLUDE\TYPE_TRAITS
D:\INSTALL\VS2010\VC\INCLUDE\LIMITS
D:\INSTALL\VS2010\VC\INCLUDE\YMATH.H
D:\INSTALL\VS2010\VC\INCLUDE\CFLOAT
D:\INSTALL\VS2010\VC\INCLUDE\FLOAT.H
D:\INSTALL\VS2010\VC\INCLUDE\CRTWRN.H
D:\INSTALL\VS2010\VC\INCLUDE\XTR1COMMON
D:\INSTALL\VS2010\VC\INCLUDE\XFWRAP
D:\INSTALL\VS2010\VC\INCLUDE\XFWRAP1
D:\INSTALL\VS2010\VC\INCLUDE\XXTYPE_TRAITS
D:\INSTALL\VS2010\VC\INCLUDE\TYPEINFO
D:\INSTALL\VS2010\VC\INCLUDE\XLOCINFO
D:\INSTALL\VS2010\VC\INCLUDE\XLOCINFO.H
D:\INSTALL\VS2010\VC\INCLUDE\CTYPE.H
D:\INSTALL\VS2010\VC\INCLUDE\LOCALE.H
D:\INSTALL\VS2010\VC\INCLUDE\XDEBUG
D:\INSTALL\VS2010\VC\INCLUDE\SYSTEM_ERROR
D:\INSTALL\VS2010\VC\INCLUDE\CERRNO
D:\INSTALL\VS2010\VC\INCLUDE\ERRNO.H
D:\INSTALL\VS2010\VC\INCLUDE\SHARE.H
F:\PROJECT\C++\DATASTRUCT\DATASTRUCT\DATASTRUCT\BINARYTREE.H
D:\INSTALL\VS2010\VC\INCLUDE\QUEUE
D:\INSTALL\VS2010\VC\INCLUDE\ALGORITHM
D:\INSTALL\VS2010\VC\INCLUDE\MEMORY
D:\INSTALL\VS2010\VC\INCLUDE\INTRIN.H
D:\INSTALL\VS2010\VC\INCLUDE\SETJMP.H
D:\INSTALL\VS2010\VC\INCLUDE\IMMINTRIN.H
D:\INSTALL\VS2010\VC\INCLUDE\WMMINTRIN.H
D:\INSTALL\VS2010\VC\INCLUDE\NMMINTRIN.H
D:\INSTALL\VS2010\VC\INCLUDE\SMMINTRIN.H
D:\INSTALL\VS2010\VC\INCLUDE\TMMINTRIN.H
D:\INSTALL\VS2010\VC\INCLUDE\PMMINTRIN.H
D:\INSTALL\VS2010\VC\INCLUDE\EMMINTRIN.H
D:\INSTALL\VS2010\VC\INCLUDE\XMMINTRIN.H
D:\INSTALL\VS2010\VC\INCLUDE\MMINTRIN.H
D:\INSTALL\VS2010\VC\INCLUDE\MM3DNOW.H
D:\INSTALL\VS2010\VC\INCLUDE\XXSHARED
D:\INSTALL\VS2010\VC\INCLUDE\DEQUE
D:\INSTALL\VS2010\VC\INCLUDE\XFUNCTIONAL
D:\INSTALL\VS2010\VC\INCLUDE\VECTOR
D:\INSTALL\VS2010\VC\BIN\1033\CLUI.DLL
C:\WINDOWS\GLOBALIZATION\SORTING\SORTDEFAULT.NLS
C:\WINDOWS\SYSTEM32\TZRES.DLL
