^F:\PROJECT\C++\DATASTRUCT\DATASTRUCT\DATASTRUCT\ARRSTACK.CPP|F:\PROJECT\C++\DATASTRUCT\DATASTRUCT\DATASTRUCT\BINARYTREE.CPP|F:\PROJECT\C++\DATASTRUCT\DATASTRUCT\DATASTRUCT\DOUBLELINKEDLIST.CPP|F:\PROJECT\C++\DATASTRUCT\DATASTRUCT\DATASTRUCT\LINKEDQUEUE.CPP|F:\PROJECT\C++\DATASTRUCT\DATASTRUCT\DATASTRUCT\MAIN.CPP|F:\PROJECT\C++\DATASTRUCT\DATASTRUCT\DATASTRUCT\SINGLELINKEDLIST.CPP|F:\PROJECT\C++\DATASTRUCT\DATASTRUCT\DATASTRUCT\SINGLELOOPLINKLIST.CPP
F:\PROJECT\C++\DATASTRUCT\DATASTRUCT\DATASTRUCT\DEBUG\VC141.PDB
F:\PROJECT\C++\DATASTRUCT\DATASTRUCT\DATASTRUCT\DEBUG\VC141.IDB
F:\PROJECT\C++\DATASTRUCT\DATASTRUCT\DATASTRUCT\DEBUG\SINGLELOOPLINKLIST.OBJ
F:\PROJECT\C++\DATASTRUCT\DATASTRUCT\DATASTRUCT\DEBUG\SINGLELINKEDLIST.OBJ
F:\PROJECT\C++\DATASTRUCT\DATASTRUCT\DATASTRUCT\DEBUG\MAIN.OBJ
F:\PROJECT\C++\DATASTRUCT\DATASTRUCT\DATASTRUCT\DEBUG\LINKEDQUEUE.OBJ
F:\PROJECT\C++\DATASTRUCT\DATASTRUCT\DATASTRUCT\DEBUG\DOUBLELINKEDLIST.OBJ
F:\PROJECT\C++\DATASTRUCT\DATASTRUCT\DATASTRUCT\DEBUG\BINARYTREE.OBJ
F:\PROJECT\C++\DATASTRUCT\DATASTRUCT\DATASTRUCT\DEBUG\ARRSTACK.OBJ
^F:\PROJECT\C++\DATASTRUCT\DATASTRUCT\DATASTRUCT\ARRSTACK.CPP
F:\PROJECT\C++\DATASTRUCT\DATASTRUCT\DATASTRUCT\DEBUG\VC141.PDB
^F:\PROJECT\C++\DATASTRUCT\DATASTRUCT\DATASTRUCT\DOUBLELINKEDLIST.CPP
F:\PROJECT\C++\DATASTRUCT\DATASTRUCT\DATASTRUCT\DEBUG\VC141.PDB
^F:\PROJECT\C++\DATASTRUCT\DATASTRUCT\DATASTRUCT\LINKEDQUEUE.CPP
F:\PROJECT\C++\DATASTRUCT\DATASTRUCT\DATASTRUCT\DEBUG\VC141.PDB
^F:\PROJECT\C++\DATASTRUCT\DATASTRUCT\DATASTRUCT\SINGLELINKEDLIST.CPP
F:\PROJECT\C++\DATASTRUCT\DATASTRUCT\DATASTRUCT\DEBUG\VC141.PDB
^F:\PROJECT\C++\DATASTRUCT\DATASTRUCT\DATASTRUCT\SINGLELOOPLINKLIST.CPP
F:\PROJECT\C++\DATASTRUCT\DATASTRUCT\DATASTRUCT\DEBUG\VC141.PDB
^F:\PROJECT\C++\DATASTRUCT\DATASTRUCT\DATASTRUCT\BINARYTREE.CPP|F:\PROJECT\C++\DATASTRUCT\DATASTRUCT\DATASTRUCT\MAIN.CPP
F:\PROJECT\C++\DATASTRUCT\DATASTRUCT\DATASTRUCT\DEBUG\VC141.PDB
F:\PROJECT\C++\DATASTRUCT\DATASTRUCT\DATASTRUCT\DEBUG\VC141.IDB
F:\PROJECT\C++\DATASTRUCT\DATASTRUCT\DATASTRUCT\DEBUG\MAIN.OBJ
F:\PROJECT\C++\DATASTRUCT\DATASTRUCT\DATASTRUCT\DEBUG\BINARYTREE.OBJ
^F:\PROJECT\C++\DATASTRUCT\DATASTRUCT\DATASTRUCT\BALANCETREE.CPP|F:\PROJECT\C++\DATASTRUCT\DATASTRUCT\DATASTRUCT\MAIN.CPP
F:\PROJECT\C++\DATASTRUCT\DATASTRUCT\DATASTRUCT\DEBUG\VC141.PDB
F:\PROJECT\C++\DATASTRUCT\DATASTRUCT\DATASTRUCT\DEBUG\VC141.IDB
F:\PROJECT\C++\DATASTRUCT\DATASTRUCT\DATASTRUCT\DEBUG\MAIN.OBJ
F:\PROJECT\C++\DATASTRUCT\DATASTRUCT\DATASTRUCT\DEBUG\BALANCETREE.OBJ
^F:\PROJECT\C++\DATASTRUCT\DATASTRUCT\DATASTRUCT\BALANCETREE.CPP|F:\PROJECT\C++\DATASTRUCT\DATASTRUCT\DATASTRUCT\BINARYTREE.CPP|F:\PROJECT\C++\DATASTRUCT\DATASTRUCT\DATASTRUCT\MAIN.CPP
F:\PROJECT\C++\DATASTRUCT\DATASTRUCT\DATASTRUCT\DEBUG\VC141.PDB
F:\PROJECT\C++\DATASTRUCT\DATASTRUCT\DATASTRUCT\DEBUG\VC141.IDB
F:\PROJECT\C++\DATASTRUCT\DATASTRUCT\DATASTRUCT\DEBUG\MAIN.OBJ
F:\PROJECT\C++\DATASTRUCT\DATASTRUCT\DATASTRUCT\DEBUG\BINARYTREE.OBJ
F:\PROJECT\C++\DATASTRUCT\DATASTRUCT\DATASTRUCT\DEBUG\BALANCETREE.OBJ
^F:\PROJECT\C++\DATASTRUCT\DATASTRUCT\DATASTRUCT\BALANCETREE.CPP|F:\PROJECT\C++\DATASTRUCT\DATASTRUCT\DATASTRUCT\BINARYTREE.CPP|F:\PROJECT\C++\DATASTRUCT\DATASTRUCT\DATASTRUCT\MAIN.CPP|F:\PROJECT\C++\DATASTRUCT\DATASTRUCT\DATASTRUCT\RBTREE.CPP
F:\PROJECT\C++\DATASTRUCT\DATASTRUCT\DATASTRUCT\DEBUG\VC141.PDB
F:\PROJECT\C++\DATASTRUCT\DATASTRUCT\DATASTRUCT\DEBUG\VC141.IDB
F:\PROJECT\C++\DATASTRUCT\DATASTRUCT\DATASTRUCT\DEBUG\RBTREE.OBJ
F:\PROJECT\C++\DATASTRUCT\DATASTRUCT\DATASTRUCT\DEBUG\MAIN.OBJ
F:\PROJECT\C++\DATASTRUCT\DATASTRUCT\DATASTRUCT\DEBUG\BINARYTREE.OBJ
F:\PROJECT\C++\DATASTRUCT\DATASTRUCT\DATASTRUCT\DEBUG\BALANCETREE.OBJ
^F:\PROJECT\C++\DATASTRUCT\DATASTRUCT\DATASTRUCT\BALANCETREE.CPP
F:\PROJECT\C++\DATASTRUCT\DATASTRUCT\DATASTRUCT\DEBUG\VC141.PDB
^F:\PROJECT\C++\DATASTRUCT\DATASTRUCT\DATASTRUCT\BINARYTREE.CPP
F:\PROJECT\C++\DATASTRUCT\DATASTRUCT\DATASTRUCT\DEBUG\VC141.PDB
^F:\PROJECT\C++\DATASTRUCT\DATASTRUCT\DATASTRUCT\MAIN.CPP
F:\PROJECT\C++\DATASTRUCT\DATASTRUCT\DATASTRUCT\DEBUG\VC141.PDB
^F:\PROJECT\C++\DATASTRUCT\DATASTRUCT\DATASTRUCT\RBTREE.CPP
F:\PROJECT\C++\DATASTRUCT\DATASTRUCT\DATASTRUCT\DEBUG\VC141.PDB
