#Command: D:\install\vs2017\VC\Tools\MSVC\14.16.27023\bin\HostX86\x86\link.exe /ERRORREPORT:PROMPT @C:\Users\Su\AppData\Local\Temp\tmpf871e05a1d7744299f279f90d7d39571.rsp
^F:\PROJECT\C++\DATASTRUCT\DATASTRUCT\DATASTRUCT\DEBUG\ARRSTACK.OBJ|F:\PROJECT\C++\DATASTRUCT\DATASTRUCT\DATASTRUCT\DEBUG\BINARYTREE.OBJ|F:\PROJECT\C++\DATASTRUCT\DATASTRUCT\DATASTRUCT\DEBUG\DOUBLELINKEDLIST.OBJ|F:\PROJECT\C++\DATASTRUCT\DATASTRUCT\DATASTRUCT\DEBUG\LINKEDQUEUE.OBJ|F:\PROJECT\C++\DATASTRUCT\DATASTRUCT\DATASTRUCT\DEBUG\MAIN.OBJ|F:\PROJECT\C++\DATASTRUCT\DATASTRUCT\DATASTRUCT\DEBUG\SINGLELINKEDLIST.OBJ|F:\PROJECT\C++\DATASTRUCT\DATASTRUCT\DATASTRUCT\DEBUG\SINGLELOOPLINKLIST.OBJ
F:\PROJECT\C++\DATASTRUCT\DATASTRUCT\DEBUG\DATASTRUCT.PDB
