^F:\PROJECT\C++\DATASTRUCT\DATASTRUCT\TREE\BINARYSEARCHTREE.CPP|F:\PROJECT\C++\DATASTRUCT\DATASTRUCT\TREE\BINARYTREE.CPP|F:\PROJECT\C++\DATASTRUCT\DATASTRUCT\TREE\TREE.CPP
F:\PROJECT\C++\DATASTRUCT\DATASTRUCT\TREE\DEBUG\VC141.PDB
F:\PROJECT\C++\DATASTRUCT\DATASTRUCT\TREE\DEBUG\VC141.IDB
F:\PROJECT\C++\DATASTRUCT\DATASTRUCT\TREE\DEBUG\TREE.OBJ
F:\PROJECT\C++\DATASTRUCT\DATASTRUCT\TREE\DEBUG\BINARYTREE.OBJ
F:\PROJECT\C++\DATASTRUCT\DATASTRUCT\TREE\DEBUG\BINARYSEARCHTREE.OBJ
^F:\PROJECT\C++\DATASTRUCT\DATASTRUCT\TREE\BINARYSEARCHTREE.CPP|F:\PROJECT\C++\DATASTRUCT\DATASTRUCT\TREE\BINARYTREE.CPP
F:\PROJECT\C++\DATASTRUCT\DATASTRUCT\TREE\DEBUG\VC141.PDB
F:\PROJECT\C++\DATASTRUCT\DATASTRUCT\TREE\DEBUG\VC141.IDB
F:\PROJECT\C++\DATASTRUCT\DATASTRUCT\TREE\DEBUG\BINARYTREE.OBJ
F:\PROJECT\C++\DATASTRUCT\DATASTRUCT\TREE\DEBUG\BINARYSEARCHTREE.OBJ
^F:\PROJECT\C++\DATASTRUCT\DATASTRUCT\TREE\AVLTREE.CPP|F:\PROJECT\C++\DATASTRUCT\DATASTRUCT\TREE\BINARYSEARCHTREE.CPP
F:\PROJECT\C++\DATASTRUCT\DATASTRUCT\TREE\DEBUG\VC141.PDB
F:\PROJECT\C++\DATASTRUCT\DATASTRUCT\TREE\DEBUG\VC141.IDB
F:\PROJECT\C++\DATASTRUCT\DATASTRUCT\TREE\DEBUG\BINARYSEARCHTREE.OBJ
F:\PROJECT\C++\DATASTRUCT\DATASTRUCT\TREE\DEBUG\AVLTREE.OBJ
^F:\PROJECT\C++\DATASTRUCT\DATASTRUCT\TREE\BINARYSEARCHTREE.CPP|F:\PROJECT\C++\DATASTRUCT\DATASTRUCT\TREE\TREE.CPP
F:\PROJECT\C++\DATASTRUCT\DATASTRUCT\TREE\DEBUG\VC141.PDB
F:\PROJECT\C++\DATASTRUCT\DATASTRUCT\TREE\DEBUG\VC141.IDB
F:\PROJECT\C++\DATASTRUCT\DATASTRUCT\TREE\DEBUG\TREE.OBJ
F:\PROJECT\C++\DATASTRUCT\DATASTRUCT\TREE\DEBUG\BINARYSEARCHTREE.OBJ
^F:\PROJECT\C++\DATASTRUCT\DATASTRUCT\TREE\AVLTREE.CPP|F:\PROJECT\C++\DATASTRUCT\DATASTRUCT\TREE\BINARYSEARCHTREE.CPP|F:\PROJECT\C++\DATASTRUCT\DATASTRUCT\TREE\TREE.CPP
F:\PROJECT\C++\DATASTRUCT\DATASTRUCT\TREE\DEBUG\VC141.PDB
F:\PROJECT\C++\DATASTRUCT\DATASTRUCT\TREE\DEBUG\VC141.IDB
F:\PROJECT\C++\DATASTRUCT\DATASTRUCT\TREE\DEBUG\TREE.OBJ
F:\PROJECT\C++\DATASTRUCT\DATASTRUCT\TREE\DEBUG\BINARYSEARCHTREE.OBJ
F:\PROJECT\C++\DATASTRUCT\DATASTRUCT\TREE\DEBUG\AVLTREE.OBJ
^F:\PROJECT\C++\DATASTRUCT\DATASTRUCT\TREE\AVLTREE.CPP|F:\PROJECT\C++\DATASTRUCT\DATASTRUCT\TREE\TREE.CPP
F:\PROJECT\C++\DATASTRUCT\DATASTRUCT\TREE\DEBUG\VC141.PDB
F:\PROJECT\C++\DATASTRUCT\DATASTRUCT\TREE\DEBUG\VC141.IDB
F:\PROJECT\C++\DATASTRUCT\DATASTRUCT\TREE\DEBUG\TREE.OBJ
F:\PROJECT\C++\DATASTRUCT\DATASTRUCT\TREE\DEBUG\AVLTREE.OBJ
^F:\PROJECT\C++\DATASTRUCT\DATASTRUCT\TREE\AVLTREE.CPP|F:\PROJECT\C++\DATASTRUCT\DATASTRUCT\TREE\RBTREE.CPP|F:\PROJECT\C++\DATASTRUCT\DATASTRUCT\TREE\TREE.CPP
F:\PROJECT\C++\DATASTRUCT\DATASTRUCT\TREE\DEBUG\VC141.PDB
F:\PROJECT\C++\DATASTRUCT\DATASTRUCT\TREE\DEBUG\VC141.IDB
F:\PROJECT\C++\DATASTRUCT\DATASTRUCT\TREE\DEBUG\AVLTREE.OBJ
^F:\PROJECT\C++\DATASTRUCT\DATASTRUCT\TREE\BINARYTREE.CPP|F:\PROJECT\C++\DATASTRUCT\DATASTRUCT\TREE\TREE.CPP
F:\PROJECT\C++\DATASTRUCT\DATASTRUCT\TREE\DEBUG\VC141.PDB
F:\PROJECT\C++\DATASTRUCT\DATASTRUCT\TREE\DEBUG\VC141.IDB
F:\PROJECT\C++\DATASTRUCT\DATASTRUCT\TREE\DEBUG\TREE.OBJ
F:\PROJECT\C++\DATASTRUCT\DATASTRUCT\TREE\DEBUG\BINARYTREE.OBJ
^F:\PROJECT\C++\DATASTRUCT\DATASTRUCT\TREE\AVLTREE.CPP|F:\PROJECT\C++\DATASTRUCT\DATASTRUCT\TREE\BINARYSEARCHTREE.CPP|F:\PROJECT\C++\DATASTRUCT\DATASTRUCT\TREE\BINARYTREE.CPP|F:\PROJECT\C++\DATASTRUCT\DATASTRUCT\TREE\RBTREE.CPP|F:\PROJECT\C++\DATASTRUCT\DATASTRUCT\TREE\TREE.CPP
F:\PROJECT\C++\DATASTRUCT\DATASTRUCT\TREE\DEBUG\VC141.PDB
F:\PROJECT\C++\DATASTRUCT\DATASTRUCT\TREE\DEBUG\VC141.IDB
F:\PROJECT\C++\DATASTRUCT\DATASTRUCT\TREE\DEBUG\BINARYTREE.OBJ
F:\PROJECT\C++\DATASTRUCT\DATASTRUCT\TREE\DEBUG\BINARYSEARCHTREE.OBJ
F:\PROJECT\C++\DATASTRUCT\DATASTRUCT\TREE\DEBUG\AVLTREE.OBJ
^F:\PROJECT\C++\DATASTRUCT\DATASTRUCT\TREE\AVLTREE.CPP|F:\PROJECT\C++\DATASTRUCT\DATASTRUCT\TREE\BINARYSEARCHTREE.CPP|F:\PROJECT\C++\DATASTRUCT\DATASTRUCT\TREE\BINARYTREE.CPP|F:\PROJECT\C++\DATASTRUCT\DATASTRUCT\TREE\RBTREE.CPP
F:\PROJECT\C++\DATASTRUCT\DATASTRUCT\TREE\DEBUG\VC141.PDB
F:\PROJECT\C++\DATASTRUCT\DATASTRUCT\TREE\DEBUG\VC141.IDB
F:\PROJECT\C++\DATASTRUCT\DATASTRUCT\TREE\DEBUG\BINARYTREE.OBJ
F:\PROJECT\C++\DATASTRUCT\DATASTRUCT\TREE\DEBUG\BINARYSEARCHTREE.OBJ
F:\PROJECT\C++\DATASTRUCT\DATASTRUCT\TREE\DEBUG\AVLTREE.OBJ
^F:\PROJECT\C++\DATASTRUCT\DATASTRUCT\TREE\AVLTREE.CPP
F:\PROJECT\C++\DATASTRUCT\DATASTRUCT\TREE\DEBUG\AVLTREE.OBJ
^F:\PROJECT\C++\DATASTRUCT\DATASTRUCT\TREE\BINARYSEARCHTREE.CPP
F:\PROJECT\C++\DATASTRUCT\DATASTRUCT\TREE\DEBUG\BINARYSEARCHTREE.OBJ
^F:\PROJECT\C++\DATASTRUCT\DATASTRUCT\TREE\BINARYTREE.CPP
F:\PROJECT\C++\DATASTRUCT\DATASTRUCT\TREE\DEBUG\BINARYTREE.OBJ
^F:\PROJECT\C++\DATASTRUCT\DATASTRUCT\TREE\RBTREE.CPP|F:\PROJECT\C++\DATASTRUCT\DATASTRUCT\TREE\TREE.CPP
F:\PROJECT\C++\DATASTRUCT\DATASTRUCT\TREE\DEBUG\VC141.PDB
F:\PROJECT\C++\DATASTRUCT\DATASTRUCT\TREE\DEBUG\VC141.IDB
F:\PROJECT\C++\DATASTRUCT\DATASTRUCT\TREE\DEBUG\TREE.OBJ
F:\PROJECT\C++\DATASTRUCT\DATASTRUCT\TREE\DEBUG\RBTREE.OBJ
^F:\PROJECT\C++\DATASTRUCT\DATASTRUCT\TREE\RBTREE.CPP
F:\PROJECT\C++\DATASTRUCT\DATASTRUCT\TREE\DEBUG\VC141.PDB
^F:\PROJECT\C++\DATASTRUCT\DATASTRUCT\TREE\TREE.CPP
F:\PROJECT\C++\DATASTRUCT\DATASTRUCT\TREE\DEBUG\VC141.PDB
