^F:\PROJECT\C++\DATASTRUCT\DATASTRUCT\LIST\DEBUG\DOUBLELIST.OBJ|F:\PROJECT\C++\DATASTRUCT\DATASTRUCT\LIST\DEBUG\LIST.OBJ|F:\PROJECT\C++\DATASTRUCT\DATASTRUCT\LIST\DEBUG\SINGLELIST.OBJ|F:\PROJECT\C++\DATASTRUCT\DATASTRUCT\LIST\DEBUG\SINGLELOOPLIST.OBJ
F:\PROJECT\C++\DATASTRUCT\DATASTRUCT\DEBUG\LIST.EXE
F:\PROJECT\C++\DATASTRUCT\DATASTRUCT\DEBUG\LIST.ILK
F:\PROJECT\C++\DATASTRUCT\DATASTRUCT\DEBUG\LIST.PDB
